﻿{
  "OverrideCLIPath": false,
  "CLIPath": "C:\\Software\\shareX\\ShareX\\Tools\\ffmpeg.exe",
  "VideoSource": "screen-capture-recorder",
  "AudioSource": "virtual-audio-capturer",
  "VideoCodec": "libx264",
  "AudioCodec": "libvoaacenc",
  "UserArgs": "",
  "UseCustomCommands": false,
  "CustomCommands": "-hide_banner -f dshow -thread_queue_size 1024 -rtbufsize 256M -audio_buffer_size 80 -framerate 30 -i video=\"screen-capture-recorder\":audio=\"virtual-audio-capturer\" -c:v libx264 -r 30 -preset ultrafast -tune zerolatency -crf 28 -pix_fmt yuv420p -movflags +faststart -c:a aac -ac 2 -b:a 192k -y \"output.mp4\"",
  "x264_Preset": "ultrafast",
  "x264_CRF": 28,
  "VPx_bitrate": 3000,
  "XviD_qscale": 10,
  "NVENC_preset": "llhp",
  "NVENC_bitrate": 3000,
  "GIFStatsMode": "full",
  "GIFDither": "sierra2_4a",
  "GIFBayerScale": 2,
  "AMF_usage": "transcoding",
  "AMF_quality": "speed",
  "QSV_preset": "fast",
  "QSV_bitrate": 3000,
  "AAC_bitrate": 192,
  "Opus_bitrate": 128,
  "Vorbis_qscale": 3,
  "MP3_qscale": 4
}